333001,PENETRANTE,MA. JESSEBEL,TIMTIM,22/05/1992,9655460567,Amerei_22@yahoo.com,"BRGY. 42, BAGONG POOK PUROK 6, RAWIS, LEGAZPI CITY",SOUTHERN LUZON TECHNOLOGICAL COLLEGE FOUNDATION INCORPORATED,LET,ENGLISH,1,,1,NESTOR R. PENETRANTE,09754379182/09081532677,,,,,,,,,,,
333002,BENITEZ,MA. GIECEL,BINALLA,08/05/1997,9153880215,giecelbenitez@gmail.com,villahermosa rapu rapu albay,San Jose Community Collge,LET,UFO,NULL,,1,9959872343,Ivan John B. Bo,,,,,,,,,,,
333003,PEREZ,CHARA LOU,ERLANO,07/11/1995,9052537299,perezchara7@gmail.com,"GUBAT, SORSOGON",UNIVERSITY STO.TOMAS,LET,PHY SCI,1,,1,OSCAR PEREZ,9178618704,,,,,,,,,,,
333004,PALERMO,CHARLENE,PORTERIA,30/01/1995,9092970702,charlenepalermo3095@gmail.com,"QUIBONGBONGAN,GUINOBATAN ALBAY",REPUBLIC COLLEGES OF GUINOBATAN,LET,ENGLISH,2,,1,CHARLIE B.PALERMO,9075256854,,,,,,,,,,,
333005,DAGSIL,ESTER,BENOSA,06/04/1988,9984165101,dagsilester1988@gmail.com,BARIW CAMALIG ALBAY,DIVINE WORLD COLLEGE OF LEGAZPI,LET,BEED,1,,1,EDWIN NASOL,9462857445,,,,,,,,,,,
NULL,MANCHUS,JAYBERT RENEL,VOLANTE,15/10/1985,9066736640,jaybertrenel@gmail.com,"Brgy. Alcala, Daraga Albay",DARAGA COMMUNITY COLLEGE,LET,FILIPINO,1,,1,GOLDAMER VALENZUELA,9553749130,,,,,,,,,,,
333006,MATOCI,SHANE,LLANTINO,10/01/1994,9273543438,llantinoshane1001@gmail.com,"P2 Busay, Daraga, Albay",Divine Word College of Legazpi,LET,ENGLISH,1st,,1,Socrates Matocinos,9480082068,,,,,,,,,,,
333007,PEREZ,MAYBELLE,MALATE,18/08/1996,9499805316,09499805316@gmail.com,BASCARAN DARAGA ALBAY,BICOL UNIVERSITY,LET,MAPEH,2,,1,ANNABELLE M. PEREZ,9487584897,,,,,,,,,,,
333008,SANTULLO,JETT,SABALLERO,27/10/1995,9095439523,jsantullo1052020@yahoo.com,APAD LIBON ALBAY,LIBON COMMUNITY COLLEGE,LET,MATH,2,,1,LEA S. SANTULLO,9078231302,,,,,,,,,,,
333009,ASPIRIN,BRIAN,MONTERO,03/11/1995,9773876999,aspirinbrian3@yahoo.com,"ALCALA, DARAGA ALBAY",DARAGA COMMUNITY COLLEGE,LET,MAPEH,1,,1,NANCY ASPIRIN,9461437114,,,,,,,,,,,
333010,GARAY,RIZA,ANONUEVO,08/08/1985,9487584897,09487584897@gmail.com,BIGAA LEGAZPI CITY,BICOL UNIVERSITY COLLEGE OF EDUCATION,LET,SOC SCI,2,,1,RIZALINO E. GARAY,9215380175,,,,,,,,,,,
333011,MALTO,ARIVEL,FUNGO,14/11/1983,9993751699,fungoarivel@yahoo.com,"T.ABITRIA BRGY.CENTRAL DONSOL,SORSOGON",THE LEWIS COLLEGE,LET,MATH,2,,1,RONALD C. MALTO,9333880390,,,,,,,,,,,
NULL,MANJARES,KATHREENA,AMARANTO,15/07/1995,9554567147,kathreenamanjares0202@gmail.com,"P. BURGOS ST. ILAWOD 3 DARAGA, ALBAY",Bicol University,LET,MAPEH,5,,1,Joyce Gonzaga,9276764723,,,,,,,,,,,
NULL,CREDO,EMMY,COLASITO,29/01/1998,9468803603,emmycredo25@gmail.com,"Belen, Tiwi, Albay",Tiwi Community College,LET,UFO,NULL,,1,Magdalena Credo,9993805380,,,,,,,,,,,
333012,DE LA CRUZ,JASMIN,PAJALLA,01/01/1998,9123734359,jasmindelacruz.p@gmail.com,"P4 MAURARO,GUINOBATAN ALBAY",SOUTHERN LUZON TECHNOLOGICAL COLLEGE FOUNDATION INCORPORATED,LET,FILIPINO,1,,1,CORAZON P. DELA CRUZ,9303816113,,,,,,,,,,,
333013,ALMOJUELA,NORIEL,GUANZON,03/04/1995,9165605954,yelalmojuela@yahoo.com,"P3. CABARIAN, LIGAO CITY",SOUTHERN LUZON TECHNOLOGICAL COLLEGE FOUNDATION INCORPORATED,LET,FILIPINO,1,,1,LAIZA ALMOJUELA,9165605959,,,,,,,,,,,
333014,BALASTA,LOVELY DIAN,BALLA,14/02/1996,9506371660,balas.lovelydianne@yahoo.com,STO.DOMINGO LEGAZPI CITY,SAN JOSE COMMUNITY COLLEGE,LET,FILIPINO,2,,1,DOLORES B. BALASTA,9509191324,,,,,,,,,,,
333041,VARGAS,JAY,BERMUNDO,27/08/1978,9274087970,jayvargas818@yahoo.com,"BACACAY, ALBAY",UNIVERSITY OF STO. TOMAS-LEGAZPI,LET,SOC SCI,1,,1,MIKKA ELLA DIAZ,9152094995,,,,,,,,,,,
333033,LABORDIO,ANDREY,REGOROSA,30/11/1996,9552988303,ARLABORJ30@GMAIL.COM,TABACO CITY,SAN JOSE COMMUNITY COLLEGE,LET,MATH,1,,1,ELENOR LABORDIO,9096775884,,,,,,,,,,,
333037,MONGO,MARIA REGINA,PALIMA,25/11/1988,9778301330,reginepmongo@gmail.com,TUBURAN LIGAO CITY,POLANGUI COMMUNITY COLLEGE,LET,BOI SCI,1,,1,MARK ELBERT A.ONGO,9108280335,,,,,,,,,,,
333015,CORPUZ,MARINELLE,MASAGCA,09/08/1989,9988645980,samcorpuz20@yahoo.com,LEGAZPI CITY,DARAGA COMMUNITY COLLEGE,LET,BIO SCI,1,,1,SALOME CORPUZ,9197752438,,,,,,,,,,,
333016,BERNALDEZ,ELVITA,BUENDIA,11/01/1978,9481085402,el_0033@yahoocom,MAOPI DARAGA ALBAY,RAPU-RAPU COMMUNITY COLLEGE,LET,BEED,3,,1,EDILY BERNALDEZ,9301823500,,,,,,,,,,,
333017,BALAORO,EDILYN,NEPTUNO,09/10/1993,9196018833,ebalaoro22@gmail.com,STO.DOMINGO ALBAY,DR.RUBY LANTING CASAUL EDUCATIONAL FOUNDATION,LET,SOC SCI,1,,1,MELINDA BALAORO,9052438915,,,,,,,,,,,
333049,BETIZ,JOVEL,BERMAS,NULL,9093885752,jovel_betiz@yahoo.com,BONGA BACACAY ALBAY,SAN JOSE COMMUNITY COLLEGE,LET,FILIPINO,2,,1,JULIE MARIE BILAOS,9951493790,,,,,,,,,,,
333018,MEDIANA,ERIKA,MENDEVIL,02/04/1997,9558816351,erikamediana02@yahoo.com,JOVELLAR ALBAY,SOUTHERN LUZON TECHNOLOGYCAL COLLEGE FOUNDATION INC.,LET,ENGLISH,1,,1,NESTOR MEDIANA,9956642864,,,,,,,,,,,
333019,DUCOG,OLIVIA,DARIA,01/04/1975,9291260722,oliveducog17@gmail.com,PANGPANG SORSOGON,BICOL COLLEGE,LET,UFO,5,,1,RICARDO J. DARIA,9291260722,,,,,,,,,,,
333020,PAGDAGDAGAN,CHRISTINE,LAGUMBAY,30/09/1984,9509803535,lagristi_84@yahoo.com,BRGY.PANDAN LIGAO CITY,UNIVERSITY STO.TOMAS LEGAZPI,LET,MATH,NULL,,1,JOBETH R. PAGDAGDAGAN,9303800189,,,,,,,,,,,
333021,CEPRIASO,TRIASHA,ROS,01/05/1994,9178320350,trisha.cepriasoxxii@gmail.com,LIGAO CITY,UNIVERSITY STO.TOMAS LEGAZPI,LET,SOC SCI,NULL,,1,HELEN M. ROS,9952828040,,,,,,,,,,,
333022,AYCARDO,KRISTEL MAY,MARINO,25/05/1997,9121154433,km.aycardo@yahoo.com,TAGAS DARAGA ALBAY,DARAGA COMMUNITY COLLEGE,LET,BEED,1,,1,EVELYN M. AYCARDO,9387209968,,,,,,,,,,,
333023,OLANO,JULIENE,MENESES,13/09/1998,9566711716,olanojuliene@gmail.com,KIMANTONG DARAGA ALBAY,UNIVERSITY STO.TOMAS LEGAZPI,LET,VALUES,1,,1,JELYNNE M. OLANO,9774011734,,,,,,,,,,,
333024,PALMARIA,GLENE,MAYOR,16/09/1998,9457469959,glene.palmaria@bicol-u.educ.ph,KIWALO DARAGA ALBAY,BICOL UNIVERSITY COLLEGE OF EDUCATION,LET,SOC SCI,1,,1,MERCY M. PALMARIA,930159922,,,,,,,,,,,
333025,ORAA,ROY IAN,LLAMERA,13/02/1988,9206683723,iamroyian17@yahoo.com,DARAGA ALBAY,UNIVERSITY STO.TOMAS LEGAZPI,LET,VALUES,1,,1,KENN ALVIN L. ORAA,9206966273,,,,,,,,,,,
333026,PEREZ,JULIE ANN,BRIMBUELA,24/04/1997,9108465249,julieannperez0424@gmail.com,MATAGBAC TABACO CITY,DR.CARLOS S. LANTING COLLEGE,LET,MATH,1,,1,MARICEL PEREZ,9480003450,,,,,,,,,,,
333027,SALONDRO,MARY ANN,LLORERA,03/01/1983,9165605644,mhean_03421@yahoo.com,RAWIS  LEGAZPI CITY,DARAGA COMMUNITY COLLEGE,LET,ENGLISH,2,,1,JIMBO SALONDRO,9566702976,,,,,,,,,,,
333038,ROBLES,RALPH IAN,MORTEGA,27/10/1997,9754246183,roblesralphian.bf11@gmail.com,Maoyod Legazpi City,Ateneo De Naga University,LET,MATH,1,,1,Bernadette E. Mortega,9177093311,,,,,,,,,,,
333028,SAN GABRIEL,LUIS PAULO,GILANA,03/09/1995,9278055870,luisin.mit@gmail.com,BULAN SORSOGON,SORSOGON STATE COLLEGE BULAN,LET,SOC SCI,1,,1,ANA MARIA G. SAN GABRIEL,9193395594,,,,,,,,,,,
333029,LOSITANO,LIEZL,MIMAY,01/08/1994,9501328703,liezllositano1124@gmail.com,PILAR SORSOGON,DARAGA COMMUNITY COLLEGE,LET,BEED,2,,1,ELENA LOSITANO,9502585918,,,,,,,,,,,
333030,LLENA,JOSELITO,BINO,NULL,9294997306,jamesivanllena@yahoo.com,LEGAZPI CITY,BICOL UNIVERSITY,LET,TLE,1,,1,IMELDA T. LLENA,9294997306,,,,,,,,,,,
333031,OPIANA,CHARLENE,QUINONES,18/06/1995,9291405656,charleneyome252@gmail.com,PADANG LEGAZPI CITY,SOUTHERN LUZON TECHNOLOGYCAL COLLEGE FOUNDATION INC.,LET,ENGLISH,1,,1,RIAN OPIANA,9663954473,,,,,,,,,,,
333032,AVILA,NEPHTALI,BASCO,14/02/1980,9086279101,avilanephtali@yahoo.com,LIGAO CITY,REPUBLIC COLLEGES,LET,BEED,11,,1,CYNTHIA AVILA,9216419318,,,,,,,,,,,
333034,REJUSO,SARAH JEAN,ALMOETE,15/05/1993,9563399115,sarahjeanrejuro@gmail.com,MASBATE,UNIVERSITY OF STO.TOMAS LEGAZPI,LET,VALUES ,1,,1,JEAN REVURO,9288061952,,,,,,,,,,,
333040,NUDO,MAUREEN,LAGADIA,06/06/1992,9464619143,nudo123@yahoo.com,9464619143,DARAGA COMMUNITY COLLEGE,LET,BEED,3,,1,CLAUDINE T. LAGADIA,946969921,,,,,,,,,,,
333036,BUENAFE,CHARWEN,BUENDIA,19/08/1979,9770626899,charwen32@gmail.com,"ALBAY ,LEGAZPI",DARAGA COMMUNITY COLLEGE,LET,MATH,1,,1,JEAN BUENAFE,9178329825,,,,,,,,,,,
333035,TRILLES,KRISTINE,ARGANDA,NULL,9307061847,kristineargandatrilles@gmail.com,"TAYSAN, LEGAZZPI CITY",BICOL UNIVERSITY COLLEGE OF INDUSTRIAL AND TECHNOLOGY,LET,TLE,1,,1,JAY TRILLES,9468012506,,,,,,,,,,,
333039,OLAVARIO,IAN CEDRIC,HERNANDEZ,03/04/1998,9.09E+11,ian_cedrix21@yahoo.com,GUINOBATAN ALBAY,BICOL UNIVERSITY COLLEGE OF EDUCATION,LET,MATH,1,,1,DEXTER FREOLO,9561604297,,,,,,,,,,,
333042,NATO,MARY ROSE,ALBA,20/10/1990,9121178212,rosenato@yahoo.com,"DARAGA, ALBAY",DARAGA COMMUNITY COLLEGE,LET,FILIPINO,1,,1,NORA AFRICANO,9175068191,,,,,,,,,,,
333043,ABOCADO,MARK JAREN,ARCINUE,06/06/1998,9954003985,abocadomarkjaren18@gmail.com,BUENAVISTA LEGAZPI,BICOL UNIVERSITY,LET,MATH,1,,1,MICHELLE A. ABOCADO,9215187644,,,,,,,,,,,
333046,CALAR,JEANYLYN,BARRANDA,10/04/1985,9082620443,calar05jean@gmail.com,CRUZADA LEGAZPI CITY,UNIVERSITY STO.TOMAS LEGAZPI,LET,SOC SCI,1,,1,KAREN CACERES,9985572799,,,,,,,,,,,
333045,CACERES,KAREN,ALANO,08/09/1979,998557299,karenalano@yahoo.com,DARAGA ALBAY,UNIVERSITY STO.TOMAS LEGAZPI,LET,ENGLISH,1,,1,LILIA B. CACERES,9155052411,,,,,,,,,,,
333044,LLONA,MARY ANN,LORA,23/10/1983,9952334279,Mhailen3@yahoo.com,"SOGOY CASTILLA,SORSOGON",BICOL COLLEGE,LET,SOC SCI,1,,1,JOSE DENNY LLONA,9086829130,,,,,,,,,,,
333047,PACHECO,SHEILA,RAMOS,26/11/1972,9755391729,bambipatcheco@gmail,DARAGA ALBAY,DARAGA COMMUNITY COLLEGE,LET,SOC SCI,1,,1,PAULINE ANN ARROYO,9434271522,,,,,,,,,,,
333048,SAILOG,ANGELYN,FABRECANTE,18/03/1993,9484728325,sailogangelyn@yahoo.com,DARAGA ALBAY,DARAGA COMMUNITY COLLEGE,LET,MATH,NULL,,1,ELENITH F. SAILOG,9468456000,,,,,,,,,,,
333073,HERRERA,JAIKAH MAE,LUDOVICE,NULL,9057579218,jaikahmae@gmail.com,"Binitayan, Daraga, Albay",STI,LET,SOC SCI,Mar-19,,1,Edgar S. Herrera,9063214618,,,,,,,,,,,
333050,BORJA,FRANCES QUENNIE,BORJA,18/05/1995,9173657428,borja123@yahoo.com,MAROROY DARAGA ALBAY,BICOL UNIVERSITY,LET,ENGLISH,1,,1,N/A,N/A,,,,,,,,,,,
333051,BARRUN,MIRRALYN,ROVIRA,25/10/1989,921997034,mirralynbarrun@yahoo.com,OROSITE LEGAZPI CITY,MASBATE COLLEGE,LET,UFO,2,,1,JENLYN BARRUN,9295682184,,,,,,,,,,,
333052,BERNARTE,GRETCHEN,CADAG,23/07/1987,9274964353,bernarte@yahoo.com,TAGAS DARAGA ALBAY,DARAGA COMMUNITY COLLEGE,LET,SOC SCI,1,,1,HERBERT JOEY MARBELLE,9274964353,,,,,,,,,,,
333054,RAGUINDIN,SANDRA,BAYLON,12/12/1991,9995839535,bugsraguindin@yahoo.com,SAGPON LEGAZPI CITY,DARAGA COMMUNITY COLLEGE,LET,TLE,1,,1,IVY LYNN DE LEOZ,9392264362,,,,,,,,,,,
333055,LABOG,SHARMAINE,BELGA,11/03/1998,9565241272,sharmainelabog@gmail.com,MATANAG LEGAZPI CITY,UNIVERSITY OF STO.TOMAS LEGAZPI,LET,ENGLISH,1,,1,SEVERINO LABOG,9277966378,,,,,,,,,,,
333056,FLORES,MARIZEN,REINA,29/06/1994,9051850293,zhieniiceflores01@gmail.com,"WASHINGTON DRIVE ,LEGAZPI CITY",ZAMORA MEMORIAL COLLEGE,LET,SOC SCI,1,,1,MARIA FLORES,9174082617,,,,,,,,,,,
333057,MARBIDA,DEVIE ROSE,LUMBES,16/12/1992,9053917052,diviemarvida@yahoo.com,DONSOL SORSOGON,SOUTHERN LUZON TECHNOLOGICAL COLLEGE FOUNDATION INCORPORATED,LET,BEED,1,,1,ROY HIJALGA,9192052898,,,,,,,,,,,
333089,MEJIA,EDGAR,GRAJO,NULL,9198719056,EDGAR34@GMAIL.COM,SORSOGON,ANNUNCIATION COLLEGE OF SORSOGON,LET,SOC SCI,2,,1,THEA MEG,9165467944,,,,,,,,,,,
NULL,FERNANDEZ,ANNALYN,ARANDIA,13/10/1983,9069358916,fernandezannalyn15@gmail.com,185 zone2 brgy.santicon polangui albay,polangui community college,LET,FILIPINO,4,,1,raymond ariola,9750584684,,,,,,,,,,,
333059,GALIT,JOVIE,ASANZA,08/04/1985,9303750866,joviegalit10@yahoo.gmail.com,"DAO ,PILAR SORSOGON",SOUTHERN LUZON TECHNOLOGICAL COLLEGE FOUNDATION INCORPORATED,LET,BEED,2,,1,AARON GALIT,9368975340,,,,,,,,,,,
333058,DIAZ,MIKKA ELLA,MANCERA,07/07/1997,9152094995,mikkaella_diaz@yahoo.com,LEGAZPI CITY,BICOL UNIVERSITY COLLEGE OF EDUCATION,LET,BEED,2,,1,ROMEO A. DIAZ,9295003714,,,,,,,,,,,
NULL,BALATINSAYO,RICO,BANICO,10/09/1987,9193356359,jessel_bsed03@yahoo.com,"Sta.Misericordia, Sto.Domingo,Albay",Zamora Memorial College,LET,MAPEH,NULL,,1,Purification Balatinsayo,9193356359,,,,,,,,,,,
333061,SAMILLANO,DONNA,ALTAREJOS,20/11/1993,9067517074,ipsamillano@gmail.com,ESTANZA LEGAZPI CITY,CENTRAL BICOL STATE UNIVERSITY OF AGRICULTURE,LET,AFA,2,,1,IAN SAMILLANO,9555624206,,,,,,,,,,,
333063,CONCEPTION,JAVELLE ANN,COLINA,NULL,9154045313,jajaconception_26@gmail.com,TIWI ALBAY,BICOL UNIVERSITY  TABACO CAMPUS,LET,AFA,2,,1,GILBERT CONCEPTION,9285895865,,,,,,,,,,,
333062,ROSELO,NOLAN,BAHOY,01/06/1988,9468390590,olesor_rosero@yahoo.com,BITANO LEGAZPI CITY,DARAGA COMMUNITY COLLEGE,LET,BEED,8,,1,JOAN  ROSERO,9127509102,,,,,,,,,,,
333065,VILLARINA,MAYLA,BRIOL,01/08/1990,9052487418,villarinamayla8@gmail.com,SORSOGON,SI- PILAR,LET,BEED,2,,1,OLIVE QUEZON,9179415753,,,,,,,,,,,
NULL,SALUDAR,VANESSA,CA̱ARES,28/04/1995,9469287237,vanessaludar@yahoo.com,"San Ramon,  Claveria,  Masbate",Bicol University College of Agriculture  and Forestry,LET,AFA,NULL,,1,Cherry Saludar,9072259914,,,,,,,,,,,
333067,LOLO,RICO,MAGDAONG,19/06/1997,9099012838,ricololo5@gmail,LOURDES PILAR SORSOGON,DARAGA COMMUNITY COLLEGE,LET,MATH,2,,1,HAINE LOLO,9263570552,,,,,,,,,,,
333062,BONGALON,JUDITH,BIESCAS,NULL,9485837677,bongalonjudith52@gmail.com,TABACO CITY,DANIEL B. PE,LET,BEED,3,,1,BERNARDETH BONGALON,9203953884,,,,,,,,,,,
333071,GABIONZA,BERNADINE,DAGAAS,NULL,9389215927,NADINEGABIONZA@YAHOO.COM,DAPDAP BULUSAP SORSOGON,UNIVERSITY OF STO.TOMAS LEGAZPI,LET,ENGLISH,2,,1,FLORENDA GABIONZA,94873316835,,,,,,,,,,,
NULL,MASARATE,GWEN,VARGAS,24/04/1982,9120455344,gwenmasarate82@gmail.com,"476 P-6 BRGY 38 GOGON LEGAZPI CITY, 4500 ALBAY","SOUTHERN LUZON TECHNOLOGICAL COLLEGE FOUNDATION, INC.",LET,MATH,NULL,,1,JERICHO ARCOS MASARATE,9297544918,,,,,,,,,,,
333069,NIMO,JERELYN,AMARANTO,08/05/1984,9662672747,nimojerelyn2@gmail.com,ANISLAG DARAGA ALBAY,DARAGA COMMUNITY COLLEGE,LET,FILIPINO,2,,1,HERO M. NIMO,9457480418,,,,,,,,,,,
333068,LOSITANO,CYRENE JOY,PEREZ,NULL,9509071334,cyrykperez@yahoo.com,ANISLAG DARAGA ALBAY,DARAGA COMMUNITY COLLEGE,LET,FILIPINO,1,,1,LUDGE PEREZ,9108370978,,,,,,,,,,,
333070,LISAY,CHISTINA,MANSANERO,NULL,9274266735,lisaychristina92@gmail.com,LEGAZPI CITY,BICOL UNIVERSITY COLLEGE OF INDUSTRIAL  TECHNOLOGY,LET,TLE,2,,1,EVELYN LISAY,9274266735,,,,,,,,,,,
333088,BURCE,JONNA MAY,BOLLOSA,NULL,9559081401,jonnamayburce_14@yahoo.com,"Zone 6, Ag̱as, San Miguel, Tabaco City",San Jose Community College,LET,MAPEH,Bachelor of Secondary Education,,1,Jeffrey D. Bidar,9756338840,,,,,,,,,,,
NULL,COMIA,JESSAN,MAQUINANA,11/12/2018,9154060835,www.jsan121195@gmail.com,Daraga albay,Daraga community college,LET,MATH,2nd time,,1,Susan comia,9084148057,,,,,,,,,,,
NULL,MATOCI,CHARLENE,MAZO,28/05/1996,9468455918,charlenematocenos@yahoo.com,BA,DARAGA COMMUNITY COLLEGE,LET,MAPEH,2,,1,MELISSA MATOCI,9997314552,,,,,,,,,,,
333075,ADEL,ANGELICA,PASCUA,NULL,9305747183,adelagelica@gmail.com,"ITALIAN RELOCATION SITE, TAGAYTAY, CAMALIG ALBAY",DARAGA COMMUNITY COLLEGE,LET,BEED,1,,1,JENNIFER LESANO,9073087858,,,,,,,,,,,
333076,DITCHE,MELBA,CAPOQUIAN,NULL,9501208790,ditchemelba020196@gmail.com,CASINI IROSIN SORSOGON,SOUTHERN LUZON TECHNOLOGYCAL COLLEGE FOUNDATION INC. BULAN,LET,SOC SCI,1,,1,VINEDA C. DITCHE,9099563075,,,,,,,,,,,
333083,VISTA,JESSA,BELGA,NULL,9460801163,vista_jessa@yahoo.com,BUSDAC BACACAY ALBAY,ZAMORA MEMORIAL COLLEGE,LET,MAPEH,4,,1,ALDRIN VISTA,9996965379,,,,,,,,,,,
333112,MACADATO,NABIELAH,PANOLONG,NULL,9489900207,nabielah_maadato@yahoo.com,"PAULUG ,LIGAO CITY",MINDANAO ISLAMIC COMPUTER COLLEGE,LET,BEED,2,,1,SAID MACADATO,9483138694,,,,,,,,,,,
333111,GALICIA,PRESCILLA,FRIAL,NULL,9484370882,prescillagalicia@gmail.com,BONGALON DARAGA ALBAY,DARAGA COMMUNITY COLLEGE,LET,BEED,5,,1,MATIN GALICIA,9489126893,,,,,,,,,,,
33386,MENDINA,PATRICK JAMES,DINO,NULL,9217981214,trixialeigh@gmail.com,STA. CRUZ LIGAO CITY,DIVINE WORD COLLEGE,LET,SOC SCI,3,,1,MARILEAH R. MENDINA,9284774655,,,,,,,,,,,
333085,OCAMPO,KENNETH,POSERAN,NULL,9509071056,okennethjoseph2@gmail.com,BAGUMBAYAN LIGAO CITY,POLANGUI COMMUNITY COLLEGE,LET,SOC SCI,4,,1,JOSEPHINE OCAMPO,9103639071,,,,,,,,,,,
333182,COLLE,GENEVA,PALMA,16/07/1993,9051467013,geneva_bhang13@yahoo.com,LIGAO CITY,Bicol University College of Education,LET,MAPEH,Repeater,,1,Lani c. Palma,9076005234,,,,,,,,,,,
333092,ALTAMERA,RIZALYN,COLARINA,30/12/1993,9568622677,rizalyn_altamera@yahoo.com,Busay Ligao City,Polangui Community College,LET,SOC SCI,4,,1,Romenick C. Altamera,9077194641,,,,,,,,,,,
333110,ADVINCULA,CHERIELENE,NALBANAI,27/08/1997,9197167960,advenculacherielene@gmail.com,PILAR SORSOGON,DARAGA COMMUNITY COLLEGE,LET,ENGLISH,2,,1,REY B. ADVINCULA,9305800293,,,,,,,,,,,
333109,ECAL,ANGELA GRACE,DIAMANTE,10/08/1996,9108867517,ecalangelgrace@yahoo.com,RAPU- RAPU ALBAY,RAPU-RAPU COMMUNITY COLLEGE,LET,BEED,2,,1,MARIA BELLA ECAL,9070602229,,,,,,,,,,,
333108,EBRADA,RYZBETH,BUEN,05/03/1996,9487364180,YHIEBUENEBRADA@YAHOO.COM,LEGAZPI CITY ALBAY,RAPU-RAPU COMMUNITY COLLEGE,LET,BEED,2,,1,RAMESES EBRADA,9126865682,,,,,,,,,,,
333106,BINLAYO,MIA JOLINA,NARBAJA,10/10/1997,9651673872,miajolinabinlayo10@gmail.com,SAN JOSE MALILIPOT ALBAY,SAN JOSE COMMUNITY COLLEGE,LET,BEED,2,,1,ELNA BINLAYO,9277261316,,,,,,,,,,,
333136,ARIMADO,SALMER,LOMERIO,24/06/1979,9199734998,salmer934@gmail.com,"P-2 Bascaran, Daraga, Albay",Daraga Community College,LET,BEED,2,,1,Merly L. Arimado,9061031902,,,,,,,,,,,
NULL,ROSALES,ROSALYN,TAñAJURA,01/11/1993,9387856659,rrshammy29@gmail.com,Purok 6 Bañag Daraga Albay,Daraga Community College,LET,MATH,2,,1,Edgar Magalona,9388706976,,,,,,,,,,,
333122,ERIT,EMILY,MIRABUENO,27/08/1996,9499897067,emilyerit100515@gmail.com,"Malabog,Daraga,Albay",Daraga Community College,LET,BEED,2nd,,1,Hermelina M. Lobete,9266926679,,,,,,,,,,,
333090,ALAMO,JUVY,VALLADOLID,22/03/1988,9499653848,alamojuvy@yahoo.com,LEGAZPI CITY ALBAY,DIVINE WORLD COLLEGE OF LEGAZPI,LET,BEED,NULL,,1,VICENTE B. BASQUINAS JR.,9476110930,,,,,,,,,,,
NULL,BORROMEO,EVELYN,CEREZO,18/10/1984,9092254539,cerezoevelyn99@yahoo.com,Zone 2 Anopol Polangui Albay,Polangui Community College,LET,TLE,3,,1,Henry Borromeo,9094973980,,,,,,,,,,,
NULL,BUSTAMANTE,VILIAN JOY,LEYCO,03/01/1991,9654815701,jhoyleyco_ph@yahoo.com,"ISS Layon, Ligao City",Bicol University,LET,TLE,Repeater,,1,Abraham Bustamante,9754384668,,,,,,,,,,,
333104,LIM,PRECY,TOMENIO,16/03/1995,9366498208,precylim16@gmail.com,"PUROK 5 GOGON, LEGAZPI CITY",DARAGA COMMUNITY COLLEGE,LET,BEED,2,,1,CHRISTINE LIM,9350735116,,,,,,,,,,,
NULL,BONAOBRA,LEAH,BENITEZ,08/11/1990,9461518363,leahbonaobra@yahoo.com,"Salvacion, Tabaco City",Daniel B. Peña Memorial College Foundation,LET,BEED,2,,1,Liliosa Bonaobra,9122880020,,,,,,,,,,,
333138,BRAGAIS,JESHRIEL,BORBOR,17/02/1994,9108467659,bragaisiziel@yahoo.com.ph,Sto. Cristo Tabaco city,Daniel B. Pena Memorial College Foundation,LET,NULL,4,,1,Evelyn Bragais,9308781871,,,,,,,,,,,
NULL,CARRANZA,CLARISSA,BARTOLAY,08/02/1991,9385568373,mourissa670@gmail.com,"Barangay rizal,legaspi city",Liceo de san jacinto foundation inc,LET,BEED,2,,1,Samson carranza jr,9304971668,,,,,,,,,,,
NULL,GARCIA,MERLYN,BUENDIA,13/03/1994,9504826420,garciamerlyn13@gmail.com,"Bantayan,Tabaco City",Bachelor of Elementary School,LET,BEED,Two,,1,Mark Anthony Bosque,9070784634,,,,,,,,,,,
NULL,BAGAMASBAD,CARLA,CADAG,08/11/1995,9122381667,carlacadag15@gmail.com,VINISITAHAN DONSOL SORSOGON,BICOL COLLEGE,LET,BEED,2,,1,ANJO MOLIT,9482255206,,,,,,,,,,,
333091,BONCOLMO,MARVIN,BORAGAY,21/06/1993,9077216521,junovigintiunus@gmail.com,PAGATPATAN BATO CAMARENES SUR.,HOLY TRINITY COLLEGE,LET,BEED,2,,1,NENUS JAZMIN RICHACHO,9462084652,,,,,,,,,,,
333094,DASIGAN,JESSIE,OMNES,02/11/1994,9654807907,dasiganjessie@yahoo.com,"LAWINON PIODURAN, ALBAY",WESTCOAST COLLEGE,LET,BEED,2,,1,MARK ESTELITO O. DASIGAN,9661306966,,,,,,,,,,,
333095,LLAMES,CATHERINE,MARQUEZ,24/07/1997,9367370086,LLAMESCATHERINE@YAHOO.COM,"BASICAO INT, PIODURAN, ALBAY",WESTCOAST COLLEGE,LET,BEED,2,,1,MERCY M. LLAMES,9356979137,,,,,,,,,,,
333096,CAJARO,JONNA,TOLOSA,07/04/1995,9759225629,jonnacajaro@yahoo.com,"LA MEDALLA SUMEL PIODURAN, ALBAY",WESTCOAST COLLEGE,LET,BEED,1,,1,MA.FE CAJARO`,9753001969,,,,,,,,,,,
333097,ALGABA,JEMMA CRIS,ONGUDA,10/11/1995,9676793875,algabajemmacris@yahoo.com,"LA MEDALLA SUMEL PIODURAN, ALBAY",WESTCOAST COLLEGE,LET,BEED,2,,1,EMMA ALGARA,9368276373,,,,,,,,,,,
333113,SARCIA,JOHN CARLOS,MIRABUENO,18/02/1994,9461470976,johncarlossarcia@gmail.com,"LORDES STREET UBALIW POLANGUI , ALBAY",POLANGUI COMMUNITY COLLEGE,LET,TLE,2,,1,mari AILEEN SARCIA,9051911366,,,,,,,,,,,
333114,BALAGUER,JENEROSE,BATALLER,30/08/1998,9383408216,jenerosebalaguer@yahoo.com,RAWIS  LEGAZPI CITY,ZAMORA MEMORIAL COLLEGE,LET,TLE,2,,1,MARCO ALRON,9303963447,,,,,,,,,,,
333115,MORESCO,SARAH MAY,NACION,15/07/1996,9955794131,sarahmay.n.moresco@yahoo.com,GUINOBATAN ALBAY,BICOL UNIVERSITY,LET,MAPEH,2,,1,CLEOFE N. MORESCO,9955794131,,,,,,,,,,,
333101,ALCANTA,JESSICA,NAPIRE,24/12/1993,930779828,jessicaalcantara54@yahoo.com,CIMAGHAN DONSOL SORSOGON,SOUTHERN LUZON TECHNOLOGYCAL COLLEGE FOUNDATION INC.,LET,FILIPINO,NULL,,1,ELMA N. ALCANTARA,N/A,,,,,,,,,,,
NULL,BULACAN,MARY DEEBY,PILI,26/10/1994,9275687820,bulacanmarydeeby@yahoo.com,Santiago Bato Cam. Sur,Holy Trinity College of Camarines Sur BEED,LET,NULL,3,,1,Haydee Pili Bulacan,9481331607,,,,,,,,,,,
333162,NAVIA,SALLY,NAJE,18/06/1992,9950349483,fillory1518@gmail.com,Zone 7 San Francisco Guinobatan Albay,Ligao Community College,LET,BEED,2,,1,Sonia Navia,9455305436,,,,,,,,,,,
NULL,MONREAL,JANINE,MARBELLA,08/06/1993,9157479317,monrealj00@gmail.com,"PANDAN, DARAGA, ALBAY",BICOL UNIVERSITY,LET,SOC SCI,1,,1,IRNA M. MONREAL,9293601182,,,,,,,,,,,
333161,OPEÑA,JESSECA,DE GUIA,05/12/1997,9055433719,jessecaopena05@gmail.com,"PUROK-2 BANAO GUINOBATAN,  ALBAY",LIGAO COMMUNITY COLLEGE,LET,BEED,2,,1,PASTORA DE GUIA OPEÑA,9193448760,,,,,,,,,,,
NULL,ABINION,RIENA,MODRIGO,30/10/1995,9305986620,rienabinion@gmail.com,Brgy 28 Victory Village Legazpi city,Daraga Community college,LET,BEED,NULL,,1,roden mataganas,9107482173,,,,,,,,,,,
333093,GELILIO,KATHERINE,BARTOLATA,24/04/1998,9306336374,kathgelilio24@yahoo.com,BULAN SORSOGON,R.G DE CASRTRO COLLEGES,LET,ENGLISH,2,,1,KRISTINE B. GELILIO,9186731878,,,,,,,,,,,
NULL,ALTAMERA,RIZALYN,COLAKINA,30/12/1993,9568622676,rizalyn_altamera@yahoo.com,BUSAY LIGAO CITY,POLANGUI COMMUNITY COLLEGE,LET,SOC SCI,3,,1,EDEN C. ALTAMERA,9077194641,,,,,,,,,,,
333087,DIONES,MARY ROSE,P,15/02/1999,9467116568,dionesmaryrose@gmail.com,PILAR SORSOGON,DARAGA COMMUNITY COLLEGE,LET,MAPEH,2,,1,WILFREDO A. DIONES,9070250002,,,,,,,,,,,
333089,NAPARAM,JESSICA MICAH,SILVA,17/04/1997,9103740608,jessicamicahnaparam@bicol-u.edu.ph,MITI CAMALIG ALBAY,BICOL UNIVERSITY COLLEGE OF EDUCATION,LET,BEED,3,,1,PINKY S. NAPARAM,9084575142,,,,,,,,,,,
333132,TOCA,AMPY MAY,RAMOS,21/05/1991,9122171419,ampztoca@gmail.com,Marifosque st. Pilar sorsogon,Bicol university,LET,MAPEH,2,,1,9199979537,Kirk maquinana,,,,,,,,,,,
NULL,LLAVE,ALEXANDER,TEVES,21/01/1981,9494244204,alexanderllave21@yahoo.com,LEGAZPI CITY,BICOL UNIVERSITY COLLEGE OF NURSING,LET,BIO SCI,1,,1,AUDREY T. LLAVE,9298274806,,,,,,,,,,,
333133,BRONOLA,RECHAIDA,PARANAL,28/10/1972,9094295866,recaidabronola@yahoo.com,AGOS POLANGUI ALBAY,HOLY TRINITY COLLEGE,LET,BEED,8,,1,ROMEO BROHOGA,90994295866,,,,,,,,,,,
333081,ZURBITO,FIXY FRANCES LORYNNE,SARTIN,21/10/1997,9465474505,FIXYFRANCESLORYNNE@YAHOO.COM,BONOT LEGAZPI  CITY,OSMENA COLLEGE,LET,BEED,2,,1,9467425977,9467425977,,,,,,,,,,,
333129,MISON,MICHELLE,NUICA,14/03/1989,9263281455,michmison@yahoo.com,DARAGA ALBAY,BICOL COLLEGE,LET,BEED,3,,1,JOEL C. MISON,9307000335,,,,,,,,,,,
333126,DACULLO,ROSENDO,CAPIS,02/11/1995,9654812883,rosendodacullo@yahoo.com,TIWI ALBAY,OUR LADY OF SALVATION COLLEGE,LET,BIO SCI,2,,1,JOVEN C. DACULLO,9063907519,,,,,,,,,,,
333125,COLARINA,LEA,CERNECHEZ,25/01/1998,9484073963,leacolarina@yahoo.com,TIWI ALBAY,OUR LADY OF SALVATION COLLEGE,LET,BEED,2,,1,ANABEL CORALINA,9070822201,,,,,,,,,,,
333127,BUBAN,JANINE,BUCE,21/08/1998,9755669620,bubanjanine@yahoo.com,TIWI ALBAY,OUR LADY OF SALVATION COLLEGE,LET,BEED,1,,1,VIRGIE BUBAN,9216618178,,,,,,,,,,,
333128,GARCIA,CHERRY BLISS,GUEVARA,20/09/1992,9126039856,cherryblissggarcia@yahoo.com,MABATAG  SAGPON DARAGA ALBAY,BICOL UNIVERSITY,LET,ENGLISH,1,,1,TERESITA GARCIA,9208120373,,,,,,,,,,,
333124,ESPERA,CRISTINA,JACOB,14/02/1984,9959485974,cristinaespera@gmail.com,MAYON DARAGA ALBAY,DIVINE WORLD COLLEGE OF LEGAZPI,LET,BEED,2,,1,RODEL ESPERA,9123405040,,,,,,,,,,,
333175,BENAVENTE,CARMEN,ARANA,12/12/1980,9509191084,carmenbenavente@yahoo.com,MALABOG DARAGA ALBAY,MORMS,LET,TLE,4,,1,BERNARD BENAVENIE,9073036503,,,,,,,,,,,
333123,LLACOMA,ROMER JOHN,LATUNA,24/04/1993,929122850,romerllacona@yahoo.com,STO.DOMINGO ALBAY,DARAGA COMMUNITY COLLEGE,LET,PHY SCI,2,,1,AILEEN LLACONA,9482171913,,,,,,,,,,,
NULL,EMILY,ERIT,MIRABUENO,27/09/1996,9499897067,emelyerit100515@100515,GUINOBATAN ALBAY,DARAGA COMMUNITY COLLEGE,LET,BEED,2,,1,SALVACION ERIT,9499897067,,,,,,,,,,,
333121,NACOR,CEDRICK,RAGO,14/06/1995,9501335791,cedricnacor@yahoo.com,BACACAY ALBAY,SAN JOSE COMMUNITY COLLEGE,LET,ENGLISH,2,,1,GEMMA RAGO,9384080281,,,,,,,,,,,
NULL,MEJILLNO,LEOPOLDO JR,LORILL,11/03/1987,985368016,leo_mejillano88@yahoo.com,"BGUMBAYAN DARAGA,ALBAY",DARAGA COMMUNITY COLLEGE,LET,BEED,NULL,,1,AGAPITA MEJILLANO,9185368016,,,,,,,,,,,
333137,BELODO,SHIRLEY,FRESNIDO,06/01/1993,9302391441,belodoshirley@yahoo.com,GUINOBATAN ALBAY,OAS COMMUNITY COLLEGE,LET,BEED,3,,1,JOJI BELODO,9093515245,,,,,,,,,,,
333139,BERMAS,CRYSTAL,ONATE,14/09/1997,910314251,bermascrystal@yahoo.com,RARU-RAPU ALBAY,RAPU-RAPU COMMUNITY COLLEGE,LET,BEED,2,,1,JENNY BERMAS,9386350903,,,,,,,,,,,
NULL,BRAGAIS,JESHRIEL,BORBOR,12/08/1997,9388908604,bragaisjeshriel@yahoo.com,REWIS SAN MIGUEL TABACO ALBAY,DANIEL B. PENA MEMORIAL COLLEGE FOUNDATION,LET,BEED,2,,1,EVELYN BRAGAIS,9388908604,,,,,,,,,,,
NULL,AZURES,JAYSON,TOLEDO,21/03/1997,9154073451,azuresjayson@yahoo.com,PIODURAN ALBAY,BICOL UNIVERSITY COLLEGE OF INDUSTRIAL ARTS,LET,TLE,1,,1,GEMMA AZURES,9154073451,,,,,,,,,,,
333141,COLOQUIT,JOVITO,COMPLETO,25/08/1983,9977810870,JOVITOCOLOQUIT@YAHOO.COM,NAGA TIWI ALBAY,TIWI COMMUNITY COLLEGE,LET,BEED,3,,1,ANNABEL C. CELOSA,9261133009,,,,,,,,,,,
333142,MASAMOC,URAH MAE,MOTITA,03/09/1997,9486384928,umasamoc@yahoo.com,MOBO MASBATE,LICEO MASBATE,LET,BEED,2,,1,NILDA MASAMOC,984461588,,,,,,,,,,,
333077,ARCE,PRINCES RAIMA,RAMILLO,12/02/1995,9388975168,chardonnayarce@yahoo.com,LEGAZPI CITY ALBAY,UNIVERSITY STO.TOMAS LEGAZPI,LET,AFA,2,,1,MARIVIC ARCE,9122609521,,,,,,,,,,,
333159,SUMABAT,JETRHO,MENDOZA,11/12/1995,9063096128,jetssumabat.js@gmail.com,STO.CRISTO DARAGA ALBAY,BU-IPESR,LET,MAPEH,2,,1,CHONA SUMABAT,9063096128,,,,,,,,,,,
333160,CRISOSTOMO,RHIA,BALLLES,25/08/1995,9077374704,rhiacrisostomo@yahoo.com,"ST.DOMINGO,ALBAY",BICOL UNIVERSITY,LET,SOC SCI,2,,1,RENE CRISOSTOMO,9192690841,,,,,,,,,,,
333163,ESPILOY,JOVEROSE,ESPARRAGO,21/01/1998,9663613175,joveroseespiloy@yahoo.com,MONREAL MASBATE,BICOL UNIVERSITY COLLEGE OF EDUCATION,LET,BEED,2,,1,MARGIE ESPILOY,927284501,,,,,,,,,,,
333164,PASAYSAY,REGINE,MACANDOG,12/10/1997,9064983479,reginebasaysay@gmail.com,LEGAZPI CITY,BICOL UNIVERSITY COLLEGE OF INDUSTRIAL  TECHNOLOGY,LET,TLE,2,,1,EMMA BASAYSAY,9108445151,,,,,,,,,,,
333165,LOQUEZ,JHONALYN,LUCILO,23/04/1997,9165605928,loquezjhonalyn@gmail.com,MALABOG DARAGA ALBAY,DARAGA COMMUNITY COLLEGE,LET,BEED,2,,1,AILEEN LOQUEZ,9108084489,,,,,,,,,,,
333148,MARANTAL,MICHAEL,BELLUDO,09/06/1998,9652847087,makmarantal@yahoo.com,ILAWOD LEGAZPI CITY,BICOL UNIVERSITY COLLEGE OF INDUSTRIAL  INDUSTRIAL TECHNOLOGY,LET,TLE,2,,1,AMELITA B. MARANTAL,9485247362,,,,,,,,,,,
333149,PENARUBIA,ROSEMARIE,MIRAS,03/06/1997,9506593205,rosemarieperubia@yahoo.com,DARAGA ALBAY,BICOL UNIVERSITY COLLEGE OF INDUSTRIAL  INDUSTRIAL TECHNOLOGY,LET,TLE,1,,1,anthonio penarubia,9503146948,,,,,,,,,,,
333080,RELUCANO,MAE ANNE,BEMBENUTO,17/04/1995,9568623021,edactic1995@yahoo.com,TABACO CITY,SAN JOSE COMMUNITY COLLEGE,LET,BEED,2,,1,SHIRLY RELUCANO,9486967140,,,,,,,,,,,
333082,AGUIMBA,ANDY,ARIATE,01/08/1997,9458512416,aguimbaa@gmail.com,DARAGA ALBAY,BICOL UNIVERSITY,LET,BEED,NULL,,1,anjannethe aguimba,9386358226,,,,,,,,,,,
333120,ABAN,JOYLET,BABON,08/09/1995,9675942122,abanjoylet@yahoo.com,RAWIS LEGAZPI CITY,SAMAR STATE UNIVERSITY,LET,BEED,2,,1,MARTIN NAPOLEON GO,9057170305,,,,,,,,,,,
333150,OLITIN,LARRY,ESPINOSA,09/06/1987,9104820794,larryolitin@yahoo.com,SAN RAFAEL  GUINOBATAN ALBAY,REPUBLIC COLLEGES OF GUINOBATAN,LET,MATH,1,,1,ROSE OLITIN,9104820794,,,,,,,,,,,
333158,ARABE,JAMELAH,SALCEDA,30/11/1995,9124734337,jamelaharabe@yahoo.com,QUEZON ST. MANOOK GUBAT SORSOGON,NAGA VIEW ADVENTIST COLLEGE,LET,ENGLISH,2,,1,GEMMA ARABE,9303827416,,,,,,,,,,,
333151,BALINGBING,AMOR,BUCERNAS,30/09/1997,9464095073,balingbingamor@yahoo.com,DARAGA ALBAY,BICOL UNIVERSITY -IPERS,LET,NULL,2,,1,ADELINA BALINGBING,9984831745,,,,,,,,,,,
333060,CARILLA,MARK GABRIEL,GALANG,13/12/1986,9168239323,09168239323@YAHOO.COM,POLANGUI  ALBAY,UNIVERSITY OF STO.TOMAS LEGAZPI,LET,ENGLISH,1,,1,JULET,CARILLA,,,,,,,,,,,
333146,BITANCUR,ALJON,OSTRIA,19/01/1998,9457794167,aljonbitancur@yahoo.com,DARAGA ALBAY,DARAGA COMMUNITY COLLEGE,LET,SOC SCI,1,,1,GEMMA BITANCUR,9487219658,,,,,,,,,,,
333147,JOCOM,MAEBELLE,MARAVILLA,24/11/1991,9354081690,maebellejocom@yahoo.com,DARAGA ALBAY,BICOL UNIVERSITY,LET,MAPEH,2,,1,JOHN PAUL JOCOM,9354081689,,,,,,,,,,,
222145,VIBAR,NATHALIE,IBANEZ,24/07/1987,9302952465,nathalievigar@yahoo.com,LEGAZPI CITY,BICOL UNIVERSITY,LET,SOC SCI,1,,1,CHARLIE  VIGAR,9078170509,,,,,,,,,,,
333144,MARTICIO,ALMA,OANZON,25/02/1993,9972330274,maticioalma@yahoo.com,CASTILLA SORSOGON,ZAMORA MEMORIAL COLLEGE,LET,BEED,3,,1,FE O. MARTCIO,9059771423,,,,,,,,,,,
333181,CASIN,MONETTE,MENDOZA,10/04/1988,9662177877,monettencasin@gmail.com,MALINAO ALBAY,TIWI COMMUNITY COLLEGE,LET,BEED,NULL,,1,CHRISTOPHER CASIN,9260573724,,,,,,,,,,,
333177,MOJOS,MISCHELLE,PULVILAR,27/02/1987,9260573722,mischellemojos@yahoo.com,MALINAO ALBAY,TIWI COMMUNITY COLLEGE,LET,BEED,2,,1,BEATRIZ MOJOS,9480188481,,,,,,,,,,,
333143,SANTILLAN,MARNELLE,BERTIZ,26/04/1997,9663951948,marnelle@tahoo.com,BACACAY ALBAY,ZAMORA MEMORIAL COLLEGE,LET,BEED,2,,1,CRISTITA REVEREZA,9468883861,,,,,,,,,,,
NULL,LISAY,ROSEMARIE,LISTANA,22/09/1992,9203148788,roseleesai@gmail.com,KILIKAO DARAGA ALBAY,DARAGA COMMUNITY COLLEGE,LET,BEED,1,,1,RANDY LISAY,9509352054,,,,,,,,,,,
333167,DOLOM,JESSICA,MOYA,06/09/1992,9079580640,jhessica_dolom@yahoo.com,DARAGA ALBAY,BICOL UNIVERSITY POLANGUI CAMPUS,LET,SOC SCI,1,,1,ROSANNA DOLOM,9079580656,,,,,,,,,,,
333168,CADAG,REY ANDRE,MAGDAMIT,20/12/1995,9358802904,reyandre19@yahoo.com,POSO DONSOL SORSOGON,BICOL COLLEGE,LET,BEED,3,,1,LALAINE CADAG,9155962598,,,,,,,,,,,
33369,PANTERIORE,AIKA,MUICO,13/11/1993,9183112051,PANTERIOREAIK@GMAIL.COM,GUINOBATAN ALBAY,BICOL COLLEGE,LET,BEED,2,,1,GEORGE PANTERLORE,9061303765,,,,,,,,,,,
333170,DEOCARIZA,SOTERO,OLIVAR,05/10/1974,9086194958,SOTERO@YAHOO.COM,RAWIS  LEGAZPI CITY,DIVINE WORLD COLLEGE OF LEGAZPI,LET,SOC SCI,2,,1,ERA DEOCARIZA,9086194958,,,,,,,,,,,
333171,ABILA,SHAILYN,SARABILLO,01/12/1985,9092420042,abilashailyn@yahoo.com,POLNGUI ALBAY,POLANGUI COMMUNITY COLLEGE,LET,MAPEH,2,,1,CATALINO,9288339532,,,,,,,,,,,
NULL,ALBO,CRISTIAN,ALMOGUERA,23/12/1998,9157097938,albocristian@yahoo.com,PIODURAN ALBAY,WESTCOAST COLLEGE,LET,BEED,2,,1,NOLI ALBO,9269961263,,,,,,,,,,,
NULL,ALMOGUERRA,LYKA,DEINLA,19/11/1984,9484440922,lykadalmoguerra@yahoo.com,MASBATE CITY,MASBATE COLLEGE,LET,BEED,4,,1,FREDERICK ESPILOY,9078646882,,,,,,,,,,,
NULL,ESPARES,FRANCISCO,CAMPOSANO,17/10/1991,9998661684,juhoyespares@yahoo.com,DARAGA ALBAY,POLYTECHNIC UNIVERSITY OF THE PHIL.,LET,MAPEH,1,,1,KINLEY MERENCIANO,9473280784,,,,,,,,,,,
333180,ASAYTUNO,ROSALIE,APUYAN,02/11/1997,9776084400,asaytunorosalie@gmail.com,TAYSAN LEGAZPI CITY,BICOL COLLEGE,LET,TLE,1,,1,VERONICA ASAYTUNO,9101312274,,,,,,,,,,,
333179,ARIMADO,ROSELLE MAE,COLLANTES,15/03/1991,9166740135,arimadorosellemae888@gmail.com,LEGAZPI CITY,BICOL UNIVERSITY COLLEGE OF LEGAZPI,LET,MAPEH,1,,1,ARIMADO,9166740135,,,,,,,,,,,
333103,BORABO,MARY ANN MACANDOG,MACANDOG,09/11/1992,906352013,borabomaryann@yahoo.com,DONSOL SORSOGON,SOUTHERN LUZON TECHNOLOGICAL COLLEGE,LET,BEED,2,,1,EVELYN BORABO,97581782269,,,,,,,,,,,
333078,BONAOBRA,MELVIN,BENITEZ,02/09/2018,9078613239,melvinbonaobra@yahoo.com,LEGAZPI CITY,SAN JOSE COMMUNITY COLLEGE,LET,MAPEH,8,,1,ERVIN BONAOBRA,9263705947,,,,,,,,,,,
333178,DEL ROSARIO,GODISSA ROSE,MEJORADA,19/04/1992,9387951364,dgodissa@gmail.com,DARAGA ALBAY,DARAGA COMMUNITY COLLEGE,LET,BEED,2,,1,ARNEL OGUAN,9387951364,,,,,,,,,,,
333173,MARMOL,MAY ANN,LITA,11/05/1998,9309256757,marmolmayann@yahoo.com,DARAGA ALBAY,DARAGA COMMUNITY LITA,LET,ENGLISH,1,,1,ELEANOR MARMOL,9672955475,,,,,,,,,,,
NULL,BALCUEVA,MA. CLEOFE,TOLEDO,07/06/1986,9277227414,cleofebalcueva@gmail.com,TIWI ALBAY,BICOL UNIVERSITY,LET,ENGLISH,5,,1,IRLY BALCUEVA,9569367406,,,,,,,,,,,
NULL,VICERA,AINA,SUILO,26/07/1994,9106803066,ainavicera@yahoo.com,OAS ALBAY,OAS COMMUNITY COLLEGE,LET,BEED,2,,1,JOVEN,9072565890,,,,,,,,,,,